verilog/EMDS.vcd
$date
	Tue Nov  7 19:55:09 2017
$end
$version
	Icarus Verilog
$end
$timescale
	1ps
$end
$scope module main $end
$scope module User1 $end
$var wire 1 ! clock $end
$var wire 800 " enter_text_here [800:1] $end
$var wire 800 # receiving_message_to_file [800:1] $end
$var wire 8 $ out [7:0] $end
$var wire 1 % op_when $end
$var wire 8 & messenger_to_incoming_monitor [7:0] $end
$var wire 8 ' keyboard_out_to_box [7:0] $end
$var wire 1 ( keyboard_clock $end
$var wire 8 ) in [7:0] $end
$var wire 8 * encrypted_monitor [7:0] $end
$var wire 800 + encrypted_message [800:1] $end
$scope module box $end
$var wire 8 , _in [7:0] $end
$var wire 1 ! clock $end
$var wire 8 - encrypted_monitor [7:0] $end
$var wire 1 . incoming_character $end
$var wire 1 / outgoing_character $end
$var wire 8 0 out [7:0] $end
$var wire 1 % op_when $end
$var wire 8 1 message_character [7:0] $end
$var wire 1 ( keyboard_clock $end
$var wire 8 2 incoming_monitor [7:0] $end
$var wire 8 3 in [7:0] $end
$var reg 8 4 key [7:0] $end
$scope module decode $end
$var wire 1 ! clock $end
$var wire 1 . serialIn $end
$var wire 1 5 load $end
$var reg 8 6 parallelOut [7:0] $end
$var reg 8 7 tempparallelOut [7:0] $end
$var integer 32 8 i [31:0] $end
$scope module counter $end
$var wire 1 ! clock $end
$var reg 1 5 isItEight $end
$var integer 32 9 i [31:0] $end
$upscope $end
$upscope $end
$scope module decrypt $end
$var wire 8 : intermediateMessage [7:0] $end
$var wire 8 ; key [7:0] $end
$var wire 8 < message [7:0] $end
$var wire 8 = decryptedMessage [7:0] $end
$var wire 3 > b [2:0] $end
$var wire 3 ? a [2:0] $end
$scope module gate1 $end
$var wire 3 @ beforeShift [2:0] $end
$var wire 3 A afterShift [2:0] $end
$upscope $end
$upscope $end
$scope module encode $end
$var wire 1 ! clock $end
$var wire 1 ( keyboard_clock $end
$var wire 1 % op_when $end
$var wire 8 B parallelIn [7:0] $end
$var wire 1 C eight $end
$var reg 1 / serialOut $end
$var reg 8 D tempparallelIn [7:0] $end
$var integer 32 E i [31:0] $end
$scope module counter $end
$var wire 1 ! clock $end
$var reg 1 C isItEight $end
$var integer 32 F i [31:0] $end
$upscope $end
$upscope $end
$scope module encrypt $end
$var wire 8 G encryptedMessage [7:0] $end
$var wire 8 H key [7:0] $end
$var wire 8 I preFinal [7:0] $end
$var wire 8 J message [7:0] $end
$var wire 8 K intermediateMessage [7:0] $end
$var wire 3 L b [2:0] $end
$var wire 3 M a [2:0] $end
$scope module gate1 $end
$var wire 3 N beforeShift [2:0] $end
$var wire 3 O afterShift [2:0] $end
$upscope $end
$upscope $end
$upscope $end
$scope module encryptedMonitor $end
$var wire 1 % clock $end
$var wire 8 P in_character [7:0] $end
$var wire 800 Q out_message [800:1] $end
$var reg 800 R out [800:1] $end
$var integer 32 S i [31:0] $end
$var integer 32 T j [31:0] $end
$upscope $end
$scope module incomingMonitor $end
$var wire 1 % clock $end
$var wire 8 U in_character [7:0] $end
$var wire 800 V out_message [800:1] $end
$var reg 800 W out [800:1] $end
$var integer 32 X i [31:0] $end
$var integer 32 Y j [31:0] $end
$upscope $end
$scope module keyboard $end
$var wire 1 ( clock $end
$var wire 800 Z in_message [800:1] $end
$var wire 8 [ out_character [7:0] $end
$var reg 8 \ out [7:0] $end
$var integer 32 ] i [31:0] $end
$var integer 32 ^ j [31:0] $end
$upscope $end
$upscope $end
$upscope $end
$scope module main $end
$scope module User2 $end
$var wire 1 ! clock $end
$var wire 800 _ enter_text_here [800:1] $end
$var wire 8 ` in [7:0] $end
$var wire 800 a receiving_message_to_file [800:1] $end
$var wire 8 b out [7:0] $end
$var wire 1 c op_when $end
$var wire 8 d messenger_to_incoming_monitor [7:0] $end
$var wire 8 e keyboard_out_to_box [7:0] $end
$var wire 1 f keyboard_clock $end
$var wire 8 g encrypted_monitor [7:0] $end
$var wire 800 h encrypted_message [800:1] $end
$scope module box $end
$var wire 8 i _in [7:0] $end
$var wire 1 ! clock $end
$var wire 8 j encrypted_monitor [7:0] $end
$var wire 8 k in [7:0] $end
$var wire 1 l incoming_character $end
$var wire 1 m outgoing_character $end
$var wire 8 n out [7:0] $end
$var wire 1 c op_when $end
$var wire 8 o message_character [7:0] $end
$var wire 1 f keyboard_clock $end
$var wire 8 p incoming_monitor [7:0] $end
$var reg 8 q key [7:0] $end
$scope module decode $end
$var wire 1 ! clock $end
$var wire 1 l serialIn $end
$var wire 1 r load $end
$var reg 8 s parallelOut [7:0] $end
$var reg 8 t tempparallelOut [7:0] $end
$var integer 32 u i [31:0] $end
$scope module counter $end
$var wire 1 ! clock $end
$var reg 1 r isItEight $end
$var integer 32 v i [31:0] $end
$upscope $end
$upscope $end
$scope module decrypt $end
$var wire 8 w intermediateMessage [7:0] $end
$var wire 8 x key [7:0] $end
$var wire 8 y message [7:0] $end
$var wire 8 z decryptedMessage [7:0] $end
$var wire 3 { b [2:0] $end
$var wire 3 | a [2:0] $end
$scope module gate1 $end
$var wire 3 } beforeShift [2:0] $end
$var wire 3 ~ afterShift [2:0] $end
$upscope $end
$upscope $end
$scope module encode $end
$var wire 1 ! clock $end
$var wire 1 f keyboard_clock $end
$var wire 1 c op_when $end
$var wire 8 !" parallelIn [7:0] $end
$var wire 1 "" eight $end
$var reg 1 m serialOut $end
$var reg 8 #" tempparallelIn [7:0] $end
$var integer 32 $" i [31:0] $end
$scope module counter $end
$var wire 1 ! clock $end
$var reg 1 "" isItEight $end
$var integer 32 %" i [31:0] $end
$upscope $end
$upscope $end
$scope module encrypt $end
$var wire 8 &" encryptedMessage [7:0] $end
$var wire 8 '" key [7:0] $end
$var wire 8 (" preFinal [7:0] $end
$var wire 8 )" message [7:0] $end
$var wire 8 *" intermediateMessage [7:0] $end
$var wire 3 +" b [2:0] $end
$var wire 3 ," a [2:0] $end
$scope module gate1 $end
$var wire 3 -" beforeShift [2:0] $end
$var wire 3 ." afterShift [2:0] $end
$upscope $end
$upscope $end
$upscope $end
$scope module encryptedMonitor $end
$var wire 1 c clock $end
$var wire 8 /" in_character [7:0] $end
$var wire 800 0" out_message [800:1] $end
$var reg 800 1" out [800:1] $end
$var integer 32 2" i [31:0] $end
$var integer 32 3" j [31:0] $end
$upscope $end
$scope module incomingMonitor $end
$var wire 1 c clock $end
$var wire 8 4" in_character [7:0] $end
$var wire 800 5" out_message [800:1] $end
$var reg 800 6" out [800:1] $end
$var integer 32 7" i [31:0] $end
$var integer 32 8" j [31:0] $end
$upscope $end
$scope module keyboard $end
$var wire 1 f clock $end
$var wire 800 9" in_message [800:1] $end
$var wire 8 :" out_character [7:0] $end
$var reg 8 ;" out [7:0] $end
$var integer 32 <" i [31:0] $end
$var integer 32 =" j [31:0] $end
$upscope $end
$upscope $end
$upscope $end
$enddefinitions $end
#0
$dumpvars
b1000 ="
b1001 <"
b101110 ;"
b101110 :"
b1001101011001010111001101110011011000010110011101100101001000000110011001110010011011110110110100100000010101010101001101000101010100100011001000100000011101000110111100100000010101010101001101000101010100100011000100101110 9"
b0 8"
b1 7"
bx 6"
bx 5"
b101110 4"
b0 3"
b1 2"
bx 1"
bx 0"
b1010000 /"
b111 ."
b111 -"
b111 ,"
b111 +"
b1111011 *"
b101110 )"
b1010000 ("
b101011 '"
b1010000 &"
b1 %"
bx $"
bx #"
0""
b1010000 !"
b111 ~
b111 }
b111 |
b111 {
b101110 z
b1010000 y
b101011 x
b1111011 w
b1 v
bx u
b0 t
bx s
0r
b101011 q
b101110 p
b101110 o
b1010000 n
xm
zl
b1010000 k
b1010000 j
bx i
bx h
b1010000 g
1f
b101110 e
b101110 d
0c
b1010000 b
bx a
b1010000 `
b1001101011001010111001101110011011000010110011101100101001000000110011001110010011011110110110100100000010101010101001101000101010100100011001000100000011101000110111100100000010101010101001101000101010100100011000100101110 _
b1000 ^
b1001 ]
b101110 \
b101110 [
b1001101011001010111001101110011011000010110011101100101001000000110011001110010011011110110110100100000010101010101001101000101010100100011000100100000011101000110111100100000010101010101001101000101010100100011001000101110 Z
b0 Y
b1 X
bx W
bx V
b101110 U
b0 T
b1 S
bx R
bx Q
b1010000 P
b111 O
b111 N
b111 M
b111 L
b1111011 K
b101110 J
b1010000 I
b101011 H
b1010000 G
b1 F
bx E
bx D
0C
b1010000 B
b111 A
b111 @
b111 ?
b111 >
b101110 =
b1010000 <
b101011 ;
b1111011 :
b1 9
bx 8
b0 7
bx 6
05
b101011 4
b1010000 3
b101110 2
b101110 1
b1010000 0
x/
z.
b1010000 -
bx ,
bx +
b1010000 *
b1010000 )
1(
b101110 '
b101110 &
0%
b1010000 $
bx #
b1001101011001010111001101110011011000010110011101100101001000000110011001110010011011110110110100100000010101010101001101000101010100100011000100100000011101000110111100100000010101010101001101000101010100100011001000101110 "
1!
$end
#1000
0!
#2000
b0xxxxxxx #"
b1000 $"
b10 %"
b0 u
bz t
b10 v
b0xxxxxxx D
b1000 E
b10 F
b0 8
bz 7
b10 9
1!
#3000
0!
#4000
b11 9
b0 8
b11 F
b0xxxxxx D
b1000 E
b11 v
b0 u
b11 %"
b0xxxxxx #"
b1000 $"
1!
#5000
0!
#6000
b0xxxxx #"
b1000 $"
b100 %"
b0 u
b100 v
b0xxxxx D
b1000 E
b100 F
b0 8
b100 9
1!
#7000
0!
#8000
b101 9
b0 8
b101 F
b0xxxx D
b1000 E
b101 v
b0 u
b101 %"
b0xxxx #"
b1000 $"
1!
#9000
0!
#10000
b0xxx #"
b1000 $"
b110 %"
b0 u
b110 v
b0xxx D
b1000 E
b110 F
b0 8
b110 9
1!
#11000
0!
#12000
b111 9
b0 8
b111 F
b0xx D
b1000 E
b111 v
b0 u
b111 %"
b0xx #"
b1000 $"
1!
#13000
0!
#14000
b1001 7"
b1000 8"
bx00101110 a
bx00101110 5"
bx00101110 6"
b1001 2"
b1000 3"
bx01010000 h
bx01010000 0"
bx01010000 1"
0f
b1001 X
b1000 Y
bx00101110 #
bx00101110 V
bx00101110 W
b1001 S
b1000 T
bx01010000 +
bx01010000 Q
bx01010000 R
0(
b1010000 #"
1c
1""
b1000 %"
b1010000 i
bz s
1r
b1000 v
b1010000 D
1%
1C
b1000 F
b1010000 ,
bz 6
15
b1000 9
1!
#15000
0!
#16000
b101 |
b101 ~
b100 ?
b100 A
b110 {
b110 }
b110010 d
b110010 p
b110010 z
b110010 4"
b10 >
b10 @
b110001 &
b110001 2
b110001 =
b110001 U
b1101101 w
b1001100 :
b1000110 i
b1000110 g
b1000110 j
b1000110 /"
b1000110 $
b1000110 0
b1000110 B
b1000110 G
b1000110 `
b1000110 k
b1000110 y
b1000110 I
b1100111 *
b1100111 -
b1100111 P
b1100111 ,
b1100111 )
b1100111 3
b1100111 <
b1100111 b
b1100111 n
b1100111 !"
b1100111 &"
b1100111 ("
b110 M
b110 O
b1101101 K
b10 ,"
b10 ."
b1001100 *"
b101 L
b101 N
b100 +"
b100 -"
b10001 ]
b110010 '
b110010 1
b110010 J
b110010 [
b110010 \
b1000 ^
b10001 <"
b110001 e
b110001 o
b110001 )"
b110001 :"
b110001 ;"
b1000 ="
1(
1f
05
b0 9
0%
0C
b0 F
0r
b0 v
0c
0""
b0 %"
1!
#17000
0!
#18000
b101000 #"
b1000 $"
0m
b1 %"
b0 u
b1 v
b101000 D
b1000 E
0/
b1 F
b0 8
b1 9
1!
#19000
0!
#20000
b10 9
b0 8
b10 F
b10100 D
b1000 E
b10 v
b0 u
b10 %"
b10100 #"
b1000 $"
1!
#21000
0!
#22000
b1010 #"
b1000 $"
b11 %"
b0 u
b11 v
b1010 D
b1000 E
b11 F
b0 8
b11 9
1!
#23000
0!
#24000
b100 9
b0 8
b100 F
b101 D
b1000 E
b100 v
b0 u
b100 %"
b101 #"
b1000 $"
1!
#25000
0!
#26000
b10 #"
b1000 $"
1m
b101 %"
b0 u
b101 v
b10 D
b1000 E
1/
b101 F
b0 8
b101 9
1!
#27000
0!
#28000
b110 9
b0 8
b110 F
b1 D
b1000 E
0/
b110 v
b0 u
b110 %"
b1 #"
b1000 $"
0m
1!
#29000
0!
#30000
b0 #"
b1000 $"
1m
b111 %"
b0 u
b111 v
b0 D
b1000 E
1/
b111 F
b0 8
b111 9
1!
#31000
0!
#32000
b10001 S
bx0110011101010000 +
bx0110011101010000 Q
bx0110011101010000 R
b1000 T
b10001 X
bx0011000100101110 #
bx0011000100101110 V
bx0011000100101110 W
b1000 Y
0(
b10001 2"
bx0100011001010000 h
bx0100011001010000 0"
bx0100011001010000 1"
b1000 3"
b10001 7"
bx0011001000101110 a
bx0011001000101110 5"
bx0011001000101110 6"
b1000 8"
0f
15
b1000 9
b0 8
1%
1C
b1000 F
b1000 E
0/
1r
b1000 v
b0 u
1c
1""
b1000 %"
b1000 $"
0m
1!
#33000
0!
#34000
b1 ?
b1 A
b100 >
b100 @
b1010010 &
b1010010 2
b1010010 =
b1010010 U
b1010010 d
b1010010 p
b1010010 z
b1010010 4"
b1 |
b1 ~
b100 {
b100 }
b100101 :
b100101 w
b1110 *
b1110 -
b1110 P
b1110 ,
b1110 )
b1110 3
b1110 <
b1110 b
b1110 n
b1110 !"
b1110 &"
b1110 ("
b1110 i
b1110 g
b1110 j
b1110 /"
b1110 $
b1110 0
b1110 B
b1110 G
b1110 `
b1110 k
b1110 y
b1110 I
b100 ,"
b100 ."
b100101 *"
b100101 K
b100 M
b100 O
b1 +"
b1 -"
b1 L
b1 N
b11001 <"
b1010010 e
b1010010 o
b1010010 )"
b1010010 :"
b1010010 ;"
b1000 ="
b11001 ]
b1010010 '
b1010010 1
b1010010 J
b1010010 [
b1010010 \
b1000 ^
1f
1(
b1000 $"
0c
0""
b0 %"
b0 u
0r
b0 v
b1000 E
0%
0C
b0 F
b0 8
05
b0 9
1!
#35000
0!
#36000
b1 9
b0 8
b1 F
b1000 E
b1 v
b0 u
b1 %"
b1000 $"
1!
#37000
0!
#38000
b1000 $"
b10 %"
b0 u
b10 v
b1000 E
b10 F
b0 8
b10 9
1!
#39000
0!
#40000
b11 9
b0 8
b11 F
b1000 E
b11 v
b0 u
b11 %"
b1000 $"
1!
#41000
0!
#42000
b1000 $"
b100 %"
b0 u
b100 v
b1000 E
b100 F
b0 8
b100 9
1!
#43000
0!
#44000
b101 9
b0 8
b101 F
b1000 E
b101 v
b0 u
b101 %"
b1000 $"
1!
#45000
0!
#46000
b1000 $"
b110 %"
b0 u
b110 v
b1000 E
b110 F
b0 8
b110 9
1!
#47000
0!
#48000
b111 9
b0 8
b111 F
b1000 E
b111 v
b0 u
b111 %"
b1000 $"
1!
#49000
0!
#50000
b11001 7"
bx010100100011001000101110 a
bx010100100011001000101110 5"
bx010100100011001000101110 6"
b1000 8"
b11001 2"
bx000011100100011001010000 h
bx000011100100011001010000 0"
bx000011100100011001010000 1"
b1000 3"
0f
b11001 X
bx010100100011000100101110 #
bx010100100011000100101110 V
bx010100100011000100101110 W
b1000 Y
b11001 S
bx000011100110011101010000 +
bx000011100110011101010000 Q
bx000011100110011101010000 R
b1000 T
0(
b1110 #"
1c
1""
b1000 %"
1r
b1000 v
b1110 D
1%
1C
b1000 F
15
b1000 9
1!
#51000
0!
#52000
b0 |
b0 ~
b0 ?
b0 A
b0 {
b0 }
b1000101 d
b1000101 p
b1000101 z
b1000101 4"
b0 >
b0 @
b1000101 &
b1000101 2
b1000101 =
b1000101 U
b10000 w
b10000 :
b111011 i
b111011 g
b111011 j
b111011 /"
b111011 $
b111011 0
b111011 B
b111011 G
b111011 `
b111011 k
b111011 y
b111011 I
b111011 *
b111011 -
b111011 P
b111011 ,
b111011 )
b111011 3
b111011 <
b111011 b
b111011 n
b111011 !"
b111011 &"
b111011 ("
b0 M
b0 O
b10000 K
b0 ,"
b0 ."
b10000 *"
b0 L
b0 N
b0 +"
b0 -"
b100001 ]
b1000101 '
b1000101 1
b1000101 J
b1000101 [
b1000101 \
b1000 ^
b100001 <"
b1000101 e
b1000101 o
b1000101 )"
b1000101 :"
b1000101 ;"
b1000 ="
1(
1f
05
b0 9
0%
0C
b0 F
0r
b0 v
0c
0""
b0 %"
1!
#53000
0!
#54000
b111 #"
b1000 $"
b1 %"
b0 u
b1 v
b111 D
b1000 E
b1 F
b0 8
b1 9
1!
#55000
0!
#56000
b10 9
b0 8
b10 F
b11 D
b1000 E
1/
b10 v
b0 u
b10 %"
b11 #"
b1000 $"
1m
1!
#57000
0!
#58000
b1 #"
b1000 $"
b11 %"
b0 u
b11 v
b1 D
b1000 E
b11 F
b0 8
b11 9
1!
#59000
0!
#60000
b100 9
b0 8
b100 F
b0 D
b1000 E
b100 v
b0 u
b100 %"
b0 #"
b1000 $"
1!
#61000
0!
#62000
b1000 $"
0m
b101 %"
b0 u
b101 v
b1000 E
0/
b101 F
b0 8
b101 9
1!
#63000
0!
#64000
b110 9
b0 8
b110 F
b1000 E
b110 v
b0 u
b110 %"
b1000 $"
1!
#65000
0!
#66000
b1000 $"
b111 %"
b0 u
b111 v
b1000 E
b111 F
b0 8
b111 9
1!
#67000
0!
#68000
b100001 S
bx00111011000011100110011101010000 +
bx00111011000011100110011101010000 Q
bx00111011000011100110011101010000 R
b1000 T
b100001 X
bx01000101010100100011000100101110 #
bx01000101010100100011000100101110 V
bx01000101010100100011000100101110 W
b1000 Y
0(
b100001 2"
bx00111011000011100100011001010000 h
bx00111011000011100100011001010000 0"
bx00111011000011100100011001010000 1"
b1000 3"
b100001 7"
bx01000101010100100011001000101110 a
bx01000101010100100011001000101110 5"
bx01000101010100100011001000101110 6"
b1000 8"
0f
15
b1000 9
b0 8
1%
1C
b1000 F
b1000 E
1r
b1000 v
b0 u
1c
1""
b1000 %"
b1000 $"
1!
#69000
0!
#70000
b1010011 &
b1010011 2
b1010011 =
b1010011 U
b1 ?
b1 A
b1010011 d
b1010011 p
b1010011 z
b1010011 4"
b1 |
b1 ~
b100 >
b100 @
b100 {
b100 }
b100100 :
b100100 w
b1111 *
b1111 -
b1111 P
b1111 ,
b1111 )
b1111 3
b1111 <
b1111 b
b1111 n
b1111 !"
b1111 &"
b1111 ("
b1111 i
b1111 g
b1111 j
b1111 /"
b1111 $
b1111 0
b1111 B
b1111 G
b1111 `
b1111 k
b1111 y
b1111 I
b100100 *"
b100 ,"
b100 ."
b100100 K
b100 M
b100 O
b1 +"
b1 -"
b1 L
b1 N
b101001 <"
b1010011 e
b1010011 o
b1010011 )"
b1010011 :"
b1010011 ;"
b1000 ="
b101001 ]
b1010011 '
b1010011 1
b1010011 J
b1010011 [
b1010011 \
b1000 ^
1f
1(
b1000 $"
0c
0""
b0 %"
b0 u
0r
b0 v
b1000 E
0%
0C
b0 F
b0 8
05
b0 9
1!
#71000
0!
#72000
b1 9
b0 8
b1 F
b1000 E
b1 v
b0 u
b1 %"
b1000 $"
1!
#73000
0!
#74000
b1000 $"
b10 %"
b0 u
b10 v
b1000 E
b10 F
b0 8
b10 9
1!
#75000
0!
#76000
b11 9
b0 8
b11 F
b1000 E
b11 v
b0 u
b11 %"
b1000 $"
1!
#77000
0!
#78000
b1000 $"
b100 %"
b0 u
b100 v
b1000 E
b100 F
b0 8
b100 9
1!
#79000
0!
#80000
b101 9
b0 8
b101 F
b1000 E
b101 v
b0 u
b101 %"
b1000 $"
1!
#81000
0!
#82000
b1000 $"
b110 %"
b0 u
b110 v
b1000 E
b110 F
b0 8
b110 9
1!
#83000
0!
#84000
b111 9
b0 8
b111 F
b1000 E
b111 v
b0 u
b111 %"
b1000 $"
1!
#85000
0!
#86000
b101001 7"
bx0101001101000101010100100011001000101110 a
bx0101001101000101010100100011001000101110 5"
bx0101001101000101010100100011001000101110 6"
b1000 8"
b101001 2"
bx0000111100111011000011100100011001010000 h
bx0000111100111011000011100100011001010000 0"
bx0000111100111011000011100100011001010000 1"
b1000 3"
0f
b101001 X
bx0101001101000101010100100011000100101110 #
bx0101001101000101010100100011000100101110 V
bx0101001101000101010100100011000100101110 W
b1000 Y
b101001 S
bx0000111100111011000011100110011101010000 +
bx0000111100111011000011100110011101010000 Q
bx0000111100111011000011100110011101010000 R
b1000 T
0(
b1111 #"
1c
1""
b1000 %"
1r
b1000 v
b1111 D
1%
1C
b1000 F
15
b1000 9
1!
#87000
0!
#88000
b1010101 d
b1010101 p
b1010101 z
b1010101 4"
b0 |
b0 ~
b1010101 &
b1010101 2
b1010101 =
b1010101 U
b0 ?
b0 A
b0 {
b0 }
b0 >
b0 @
b0 w
b0 :
b101011 i
b101011 g
b101011 j
b101011 /"
b101011 $
b101011 0
b101011 B
b101011 G
b101011 `
b101011 k
b101011 y
b101011 I
b101011 *
b101011 -
b101011 P
b101011 ,
b101011 )
b101011 3
b101011 <
b101011 b
b101011 n
b101011 !"
b101011 &"
b101011 ("
b0 K
b0 M
b0 O
b0 *"
b0 ,"
b0 ."
b0 L
b0 N
b0 +"
b0 -"
b110001 ]
b1010101 '
b1010101 1
b1010101 J
b1010101 [
b1010101 \
b1000 ^
b110001 <"
b1010101 e
b1010101 o
b1010101 )"
b1010101 :"
b1010101 ;"
b1000 ="
1(
1f
05
b0 9
0%
0C
b0 F
0r
b0 v
0c
0""
b0 %"
1!
#89000
0!
#90000
b111 #"
b1000 $"
1m
b1 %"
b0 u
b1 v
b111 D
b1000 E
1/
b1 F
b0 8
b1 9
1!
#91000
0!
#92000
b10 9
b0 8
b10 F
b11 D
b1000 E
b10 v
b0 u
b10 %"
b11 #"
b1000 $"
1!
#93000
0!
#94000
b1 #"
b1000 $"
b11 %"
b0 u
b11 v
b1 D
b1000 E
b11 F
b0 8
b11 9
1!
#95000
0!
#96000
b100 9
b0 8
b100 F
b0 D
b1000 E
b100 v
b0 u
b100 %"
b0 #"
b1000 $"
1!
#97000
0!
#98000
b1000 $"
0m
b101 %"
b0 u
b101 v
b1000 E
0/
b101 F
b0 8
b101 9
1!
#99000
0!
#100000
b110 9
b0 8
b110 F
b1000 E
b110 v
b0 u
b110 %"
b1000 $"
1!
#101000
0!
#102000
b1000 $"
b111 %"
b0 u
b111 v
b1000 E
b111 F
b0 8
b111 9
1!
#103000
0!
#104000
b110001 S
bx001010110000111100111011000011100110011101010000 +
bx001010110000111100111011000011100110011101010000 Q
bx001010110000111100111011000011100110011101010000 R
b1000 T
b110001 X
bx010101010101001101000101010100100011000100101110 #
bx010101010101001101000101010100100011000100101110 V
bx010101010101001101000101010100100011000100101110 W
b1000 Y
0(
b110001 2"
bx001010110000111100111011000011100100011001010000 h
bx001010110000111100111011000011100100011001010000 0"
bx001010110000111100111011000011100100011001010000 1"
b1000 3"
b110001 7"
bx010101010101001101000101010100100011001000101110 a
bx010101010101001101000101010100100011001000101110 5"
bx010101010101001101000101010100100011001000101110 6"
b1000 8"
0f
15
b1000 9
b0 8
1%
1C
b1000 F
b1000 E
1r
b1000 v
b0 u
1c
1""
b1000 %"
b1000 $"
1!
#105000
0!
#106000
b100 ?
b100 A
b100 |
b100 ~
b10 >
b10 @
b100000 &
b100000 2
b100000 =
b100000 U
b10 {
b10 }
b100000 d
b100000 p
b100000 z
b100000 4"
b1011101 :
b1011101 w
b1110110 *
b1110110 -
b1110110 P
b1110110 ,
b1110110 )
b1110110 3
b1110110 <
b1110110 b
b1110110 n
b1110110 !"
b1110110 &"
b1110110 ("
b1110110 i
b1110110 g
b1110110 j
b1110110 /"
b1110110 $
b1110110 0
b1110110 B
b1110110 G
b1110110 `
b1110110 k
b1110110 y
b1110110 I
b10 ,"
b10 ."
b1011101 *"
b10 M
b10 O
b1011101 K
b100 +"
b100 -"
b100 L
b100 N
b111001 <"
b100000 e
b100000 o
b100000 )"
b100000 :"
b100000 ;"
b1000 ="
b111001 ]
b100000 '
b100000 1
b100000 J
b100000 [
b100000 \
b1000 ^
1f
1(
b1000 $"
0c
0""
b0 %"
b0 u
0r
b0 v
b1000 E
0%
0C
b0 F
b0 8
05
b0 9
1!
#107000
0!
#108000
b1 9
b0 8
b1 F
b1000 E
b1 v
b0 u
b1 %"
b1000 $"
1!
#109000
0!
#110000
b1000 $"
b10 %"
b0 u
b10 v
b1000 E
b10 F
b0 8
b10 9
1!
#111000
0!
#112000
b11 9
b0 8
b11 F
b1000 E
b11 v
b0 u
b11 %"
b1000 $"
1!
#113000
0!
#114000
b1000 $"
b100 %"
b0 u
b100 v
b1000 E
b100 F
b0 8
b100 9
1!
#115000
0!
#116000
b101 9
b0 8
b101 F
b1000 E
b101 v
b0 u
b101 %"
b1000 $"
1!
#117000
0!
#118000
b1000 $"
b110 %"
b0 u
b110 v
b1000 E
b110 F
b0 8
b110 9
1!
#119000
0!
#120000
b111 9
b0 8
b111 F
b1000 E
b111 v
b0 u
b111 %"
b1000 $"
1!
#121000
0!
#122000
b111001 7"
bx00100000010101010101001101000101010100100011001000101110 a
bx00100000010101010101001101000101010100100011001000101110 5"
bx00100000010101010101001101000101010100100011001000101110 6"
b1000 8"
b111001 2"
bx01110110001010110000111100111011000011100100011001010000 h
bx01110110001010110000111100111011000011100100011001010000 0"
bx01110110001010110000111100111011000011100100011001010000 1"
b1000 3"
0f
b111001 X
bx00100000010101010101001101000101010100100011000100101110 #
bx00100000010101010101001101000101010100100011000100101110 V
bx00100000010101010101001101000101010100100011000100101110 W
b1000 Y
b111001 S
bx01110110001010110000111100111011000011100110011101010000 +
bx01110110001010110000111100111011000011100110011101010000 Q
bx01110110001010110000111100111011000011100110011101010000 R
b1000 T
0(
b1110110 #"
1c
1""
b1000 %"
1r
b1000 v
b1110110 D
1%
1C
b1000 F
15
b1000 9
1!
#123000
0!
#124000
b111 |
b111 ~
b111 ?
b111 A
b111 {
b111 }
b1101111 d
b1101111 p
b1101111 z
b1101111 4"
b111 >
b111 @
b1101111 &
b1101111 2
b1101111 =
b1101111 U
b111010 w
b111010 :
b10001 i
b10001 g
b10001 j
b10001 /"
b10001 $
b10001 0
b10001 B
b10001 G
b10001 `
b10001 k
b10001 y
b10001 I
b10001 *
b10001 -
b10001 P
b10001 ,
b10001 )
b10001 3
b10001 <
b10001 b
b10001 n
b10001 !"
b10001 &"
b10001 ("
b111 M
b111 O
b111010 K
b111 ,"
b111 ."
b111010 *"
b111 L
b111 N
b111 +"
b111 -"
b1000001 ]
b1101111 '
b1101111 1
b1101111 J
b1101111 [
b1101111 \
b1000 ^
b1000001 <"
b1101111 e
b1101111 o
b1101111 )"
b1101111 :"
b1101111 ;"
b1000 ="
1(
1f
05
b0 9
0%
0C
b0 F
0r
b0 v
0c
0""
b0 %"
1!
#125000
0!
#126000
b111011 #"
b1000 $"
b1 %"
b0 u
b1 v
b111011 D
b1000 E
b1 F
b0 8
b1 9
1!
#127000
0!
#128000
b10 9
b0 8
b10 F
b11101 D
b1000 E
1/
b10 v
b0 u
b10 %"
b11101 #"
b1000 $"
1m
1!
#129000
0!
#130000
b1110 #"
b1000 $"
b11 %"
b0 u
b11 v
b1110 D
b1000 E
b11 F
b0 8
b11 9
1!
#131000
0!
#132000
b100 9
b0 8
b100 F
b111 D
b1000 E
0/
b100 v
b0 u
b100 %"
b111 #"
b1000 $"
0m
1!
#133000
0!
#134000
b11 #"
b1000 $"
1m
b101 %"
b0 u
b101 v
b11 D
b1000 E
1/
b101 F
b0 8
b101 9
1!
#135000
0!
#136000
b110 9
b0 8
b110 F
b1 D
b1000 E
b110 v
b0 u
b110 %"
b1 #"
b1000 $"
1!
#137000
0!
#138000
b0 #"
b1000 $"
b111 %"
b0 u
b111 v
b0 D
b1000 E
b111 F
b0 8
b111 9
1!
#139000
0!
#140000
b1000001 S
bx0001000101110110001010110000111100111011000011100110011101010000 +
bx0001000101110110001010110000111100111011000011100110011101010000 Q
bx0001000101110110001010110000111100111011000011100110011101010000 R
b1000 T
b1000001 X
bx0110111100100000010101010101001101000101010100100011000100101110 #
bx0110111100100000010101010101001101000101010100100011000100101110 V
bx0110111100100000010101010101001101000101010100100011000100101110 W
b1000 Y
0(
b1000001 2"
bx0001000101110110001010110000111100111011000011100100011001010000 h
bx0001000101110110001010110000111100111011000011100100011001010000 0"
bx0001000101110110001010110000111100111011000011100100011001010000 1"
b1000 3"
b1000001 7"
bx0110111100100000010101010101001101000101010100100011001000101110 a
bx0110111100100000010101010101001101000101010100100011001000101110 5"
bx0110111100100000010101010101001101000101010100100011001000101110 6"
b1000 8"
0f
15
b1000 9
b0 8
1%
1C
b1000 F
b1000 E
0/
1r
b1000 v
b0 u
1c
1""
b1000 %"
b1000 $"
0m
1!
#141000
0!
#142000
b100 ?
b100 A
b100 |
b100 ~
b10 >
b10 @
b1110100 &
b1110100 2
b1110100 =
b1110100 U
b10 {
b10 }
b1110100 d
b1110100 p
b1110100 z
b1110100 4"
b1001 :
b1001 w
b100010 *
b100010 -
b100010 P
b100010 ,
b100010 )
b100010 3
b100010 <
b100010 b
b100010 n
b100010 !"
b100010 &"
b100010 ("
b100010 i
b100010 g
b100010 j
b100010 /"
b100010 $
b100010 0
b100010 B
b100010 G
b100010 `
b100010 k
b100010 y
b100010 I
b10 ,"
b10 ."
b1001 *"
b10 M
b10 O
b1001 K
b100 +"
b100 -"
b100 L
b100 N
b1001001 <"
b1110100 e
b1110100 o
b1110100 )"
b1110100 :"
b1110100 ;"
b1000 ="
b1001001 ]
b1110100 '
b1110100 1
b1110100 J
b1110100 [
b1110100 \
b1000 ^
1f
1(
b1000 $"
0c
0""
b0 %"
b0 u
0r
b0 v
b1000 E
0%
0C
b0 F
b0 8
05
b0 9
1!
#143000
0!
#144000
b1 9
b0 8
b1 F
b1000 E
b1 v
b0 u
b1 %"
b1000 $"
1!
#145000
0!
#146000
b1000 $"
b10 %"
b0 u
b10 v
b1000 E
b10 F
b0 8
b10 9
1!
#147000
0!
#148000
b11 9
b0 8
b11 F
b1000 E
b11 v
b0 u
b11 %"
b1000 $"
1!
