verilog/Finale/VerilogBM-114-128.vcd
$date
	Tue Nov  7 21:43:12 2017
$end
$version
	Icarus Verilog
$end
$timescale
	1ps
$end
$scope module main $end
$scope module User1 $end
$var wire 1 ! clock $end
$var wire 1 " enable $end
$var wire 800 # enter_text_here [800:1] $end
$var wire 4 $ password [3:0] $end
$var wire 1 % result $end
$var wire 800 & receiving_message_to_file [800:1] $end
$var wire 8 ' out [7:0] $end
$var wire 1 ( op_when $end
$var wire 8 ) messenger_to_incoming_monitor [7:0] $end
$var wire 8 * keyboard_out_to_box [7:0] $end
$var wire 1 + keyboard_clock $end
$var wire 8 , in [7:0] $end
$var wire 8 - encrypted_monitor [7:0] $end
$var wire 800 . encrypted_message [800:1] $end
$var reg 1 / enbl $end
$scope module box $end
$var wire 8 0 _in [7:0] $end
$var wire 1 ! clock $end
$var wire 8 1 encrypted_monitor [7:0] $end
$var wire 1 2 incoming_character $end
$var wire 1 3 outgoing_character $end
$var wire 8 4 out [7:0] $end
$var wire 1 ( op_when $end
$var wire 8 5 message_character [7:0] $end
$var wire 1 + keyboard_clock $end
$var wire 8 6 incoming_monitor [7:0] $end
$var wire 8 7 in [7:0] $end
$var reg 8 8 key [7:0] $end
$scope module decode $end
$var wire 1 ! clock $end
$var wire 1 2 serialIn $end
$var wire 1 9 load $end
$var reg 8 : parallelOut [7:0] $end
$var reg 8 ; tempparallelOut [7:0] $end
$var integer 32 < i [31:0] $end
$scope module counter $end
$var wire 1 ! clock $end
$var reg 1 9 isItEight $end
$var integer 32 = i [31:0] $end
$upscope $end
$upscope $end
$scope module decrypt $end
$var wire 8 > intermediateMessage [7:0] $end
$var wire 8 ? key [7:0] $end
$var wire 8 @ message [7:0] $end
$var wire 8 A decryptedMessage [7:0] $end
$var wire 3 B b [2:0] $end
$var wire 3 C a [2:0] $end
$scope module gate1 $end
$var wire 3 D beforeShift [2:0] $end
$var wire 3 E afterShift [2:0] $end
$upscope $end
$upscope $end
$scope module encode $end
$var wire 1 ! clock $end
$var wire 1 + keyboard_clock $end
$var wire 1 ( op_when $end
$var wire 8 F parallelIn [7:0] $end
$var wire 1 G eight $end
$var reg 1 3 serialOut $end
$var reg 8 H tempparallelIn [7:0] $end
$var integer 32 I i [31:0] $end
$scope module counter $end
$var wire 1 ! clock $end
$var reg 1 G isItEight $end
$var integer 32 J i [31:0] $end
$upscope $end
$upscope $end
$scope module encrypt $end
$var wire 8 K encryptedMessage [7:0] $end
$var wire 8 L key [7:0] $end
$var wire 8 M preFinal [7:0] $end
$var wire 8 N message [7:0] $end
$var wire 8 O intermediateMessage [7:0] $end
$var wire 3 P b [2:0] $end
$var wire 3 Q a [2:0] $end
$scope module gate1 $end
$var wire 3 R beforeShift [2:0] $end
$var wire 3 S afterShift [2:0] $end
$upscope $end
$upscope $end
$upscope $end
$scope module encryptedMonitor $end
$var wire 1 ( clock $end
$var wire 1 " enable $end
$var wire 8 T in_character [7:0] $end
$var wire 800 U out_message [800:1] $end
$var reg 800 V out [800:1] $end
$var integer 32 W i [31:0] $end
$var integer 32 X j [31:0] $end
$upscope $end
$scope module incomingMonitor $end
$var wire 1 ( clock $end
$var wire 1 " enable $end
$var wire 8 Y in_character [7:0] $end
$var wire 800 Z out_message [800:1] $end
$var reg 800 [ out [800:1] $end
$var integer 32 \ i [31:0] $end
$var integer 32 ] j [31:0] $end
$upscope $end
$scope module keyboard $end
$var wire 1 + clock $end
$var wire 1 " enable $end
$var wire 800 ^ in_message [800:1] $end
$var wire 8 _ out_character [7:0] $end
$var reg 8 ` out [7:0] $end
$var integer 32 a i [31:0] $end
$var integer 32 b j [31:0] $end
$upscope $end
$scope module pwd $end
$var wire 4 c password [3:0] $end
$var reg 1 % result $end
$upscope $end
$upscope $end
$upscope $end
$scope module main $end
$scope module User2 $end
$var wire 1 ! clock $end
$var wire 1 d enable $end
$var wire 800 e enter_text_here [800:1] $end
$var wire 8 f in [7:0] $end
$var wire 4 g password [3:0] $end
$var wire 1 h result $end
$var wire 800 i receiving_message_to_file [800:1] $end
$var wire 8 j out [7:0] $end
$var wire 1 k op_when $end
$var wire 8 l messenger_to_incoming_monitor [7:0] $end
$var wire 8 m keyboard_out_to_box [7:0] $end
$var wire 1 n keyboard_clock $end
$var wire 8 o encrypted_monitor [7:0] $end
$var wire 800 p encrypted_message [800:1] $end
$var reg 1 q enbl $end
$scope module box $end
$var wire 8 r _in [7:0] $end
$var wire 1 ! clock $end
$var wire 8 s encrypted_monitor [7:0] $end
$var wire 8 t in [7:0] $end
$var wire 1 u incoming_character $end
$var wire 1 v outgoing_character $end
$var wire 8 w out [7:0] $end
$var wire 1 k op_when $end
$var wire 8 x message_character [7:0] $end
$var wire 1 n keyboard_clock $end
$var wire 8 y incoming_monitor [7:0] $end
$var reg 8 z key [7:0] $end
$scope module decode $end
$var wire 1 ! clock $end
$var wire 1 u serialIn $end
$var wire 1 { load $end
$var reg 8 | parallelOut [7:0] $end
$var reg 8 } tempparallelOut [7:0] $end
$var integer 32 ~ i [31:0] $end
$scope module counter $end
$var wire 1 ! clock $end
$var reg 1 { isItEight $end
$var integer 32 !" i [31:0] $end
$upscope $end
$upscope $end
$scope module decrypt $end
$var wire 8 "" intermediateMessage [7:0] $end
$var wire 8 #" key [7:0] $end
$var wire 8 $" message [7:0] $end
$var wire 8 %" decryptedMessage [7:0] $end
$var wire 3 &" b [2:0] $end
$var wire 3 '" a [2:0] $end
$scope module gate1 $end
$var wire 3 (" beforeShift [2:0] $end
$var wire 3 )" afterShift [2:0] $end
$upscope $end
$upscope $end
$scope module encode $end
$var wire 1 ! clock $end
$var wire 1 n keyboard_clock $end
$var wire 1 k op_when $end
$var wire 8 *" parallelIn [7:0] $end
$var wire 1 +" eight $end
$var reg 1 v serialOut $end
$var reg 8 ," tempparallelIn [7:0] $end
$var integer 32 -" i [31:0] $end
$scope module counter $end
$var wire 1 ! clock $end
$var reg 1 +" isItEight $end
$var integer 32 ." i [31:0] $end
$upscope $end
$upscope $end
$scope module encrypt $end
$var wire 8 /" encryptedMessage [7:0] $end
$var wire 8 0" key [7:0] $end
$var wire 8 1" preFinal [7:0] $end
$var wire 8 2" message [7:0] $end
$var wire 8 3" intermediateMessage [7:0] $end
$var wire 3 4" b [2:0] $end
$var wire 3 5" a [2:0] $end
$scope module gate1 $end
$var wire 3 6" beforeShift [2:0] $end
$var wire 3 7" afterShift [2:0] $end
$upscope $end
$upscope $end
$upscope $end
$scope module encryptedMonitor $end
$var wire 1 k clock $end
$var wire 1 d enable $end
$var wire 8 8" in_character [7:0] $end
$var wire 800 9" out_message [800:1] $end
$var reg 800 :" out [800:1] $end
$var integer 32 ;" i [31:0] $end
$var integer 32 <" j [31:0] $end
$upscope $end
$scope module incomingMonitor $end
$var wire 1 k clock $end
$var wire 1 d enable $end
$var wire 8 =" in_character [7:0] $end
$var wire 800 >" out_message [800:1] $end
$var reg 800 ?" out [800:1] $end
$var integer 32 @" i [31:0] $end
$var integer 32 A" j [31:0] $end
$upscope $end
$scope module keyboard $end
$var wire 1 n clock $end
$var wire 1 d enable $end
$var wire 800 B" in_message [800:1] $end
$var wire 8 C" out_character [7:0] $end
$var reg 8 D" out [7:0] $end
$var integer 32 E" i [31:0] $end
$var integer 32 F" j [31:0] $end
$upscope $end
$scope module pwd $end
$var wire 4 G" password [3:0] $end
$var reg 1 h result $end
$upscope $end
$upscope $end
$upscope $end
$enddefinitions $end
#0
$dumpvars
b0 G"
b0 F"
b1 E"
bx D"
bx C"
b1001101011001010111001101110011011000010110011101100101001000000110011001110010011011110110110100100000010101010101001101000101010100100011001000100000011101000110111100100000010101010101001101000101010100100011000100101110 B"
b0 A"
b1 @"
bx ?"
bx >"
bx ="
b0 <"
b1 ;"
bx :"
bx 9"
bx 8"
bx 7"
bx 6"
bx 5"
bx 4"
bx 3"
bx 2"
bx 1"
b101011 0"
bx /"
b1 ."
bx -"
bx ,"
0+"
bx *"
bx )"
bx ("
bx '"
bx &"
bx %"
bx $"
b101011 #"
bx ""
b1 !"
bx ~
b0 }
bx |
0{
b101011 z
bx y
bx x
bx w
xv
zu
bx t
bx s
bx r
xq
bx p
bx o
1n
bx m
bx l
0k
bx j
bx i
0h
b0 g
bx f
b1001101011001010111001101110011011000010110011101100101001000000110011001110010011011110110110100100000010101010101001101000101010100100011001000100000011101000110111100100000010101010101001101000101010100100011000100101110 e
xd
b0 c
b0 b
b1 a
bx `
bx _
b1001101011001010111001101110011011000010110011101100101001000000110011001110010011011110110110100100000010101010101001101000101010100100011000100100000011101000110111100100000010101010101001101000101010100100011001000101110 ^
b0 ]
b1 \
bx [
bx Z
bx Y
b0 X
b1 W
bx V
bx U
bx T
bx S
bx R
bx Q
bx P
bx O
bx N
bx M
b101011 L
bx K
b1 J
bx I
bx H
0G
bx F
bx E
bx D
bx C
bx B
bx A
bx @
b101011 ?
bx >
b1 =
bx <
b0 ;
bx :
09
b101011 8
bx 7
bx 6
bx 5
bx 4
x3
z2
bx 1
bx 0
x/
bx .
bx -
bx ,
1+
bx *
bx )
0(
bx '
bx &
0%
b0 $
b1001101011001010111001101110011011000010110011101100101001000000110011001110010011011110110110100100000010101010101001101000101010100100011000100100000011101000110111100100000010101010101001101000101010100100011001000101110 #
x"
1!
$end
#1000
0!
#2000
b0xxxxxxx ,"
b1000 -"
b10 ."
b0 ~
bz }
b10 !"
b0xxxxxxx H
b1000 I
b10 J
b0 <
bz ;
b10 =
1!
#3000
0!
#4000
b11 =
b0 <
b11 J
b0xxxxxx H
b1000 I
b11 !"
b0 ~
b11 ."
b0xxxxxx ,"
b1000 -"
1!
#5000
0!
#6000
b0xxxxx ,"
b1000 -"
b100 ."
b0 ~
b100 !"
b0xxxxx H
b1000 I
b100 J
b0 <
b100 =
1!
#7000
0!
#8000
b101 =
b0 <
b101 J
b0xxxx H
b1000 I
b101 !"
b0 ~
b101 ."
b0xxxx ,"
b1000 -"
1!
#9000
0!
#10000
b0xxx ,"
b1000 -"
b110 ."
b0 ~
b110 !"
b0xxx H
b1000 I
b110 J
b0 <
b110 =
1!
#11000
0!
#12000
b111 =
b0 <
b111 J
b0xx H
b1000 I
b111 !"
b0 ~
b111 ."
b0xx ,"
b1000 -"
1!
#13000
0!
#14000
0n
0+
bx ,"
1k
1+"
b1000 ."
bz |
1{
b1000 !"
bx H
1(
1G
b1000 J
bz :
19
b1000 =
1!
#15000
0!
#16000
1+
1n
09
b0 =
0(
0G
b0 J
0{
b0 !"
0k
0+"
b0 ."
1!
#17000
0!
#18000
b0xxxxxxx ,"
b1000 -"
b1 ."
b0 ~
b1 !"
b0xxxxxxx H
b1000 I
b1 J
b0 <
b1 =
1!
#19000
0!
#20000
b10 =
b0 <
b10 J
b0xxxxxx H
b1000 I
b10 !"
b0 ~
b10 ."
b0xxxxxx ,"
b1000 -"
1!
#21000
0!
#22000
b0xxxxx ,"
b1000 -"
b11 ."
b0 ~
b11 !"
b0xxxxx H
b1000 I
b11 J
b0 <
b11 =
1!
#23000
0!
#24000
b100 =
b0 <
b100 J
b0xxxx H
b1000 I
b100 !"
b0 ~
b100 ."
b0xxxx ,"
b1000 -"
1!
#25000
0!
#26000
b0xxx ,"
b1000 -"
b101 ."
b0 ~
b101 !"
b0xxx H
b1000 I
b101 J
b0 <
b101 =
1!
#27000
0!
#28000
b110 =
b0 <
b110 J
b0xx H
b1000 I
b110 !"
b0 ~
b110 ."
b0xx ,"
b1000 -"
1!
#29000
0!
#30000
b0x ,"
b1000 -"
b111 ."
b0 ~
b111 !"
b0x H
b1000 I
b111 J
b0 <
b111 =
1!
#31000
0!
#32000
0+
0n
19
b1000 =
b0 <
1(
1G
b1000 J
b0 H
b1000 I
1{
b1000 !"
b0 ~
1k
1+"
b1000 ."
b0 ,"
b1000 -"
1!
#33000
0!
#34000
1n
1+
b1000 -"
0v
0k
0+"
b0 ."
b0 ~
0{
b0 !"
b1000 I
03
0(
0G
b0 J
b0 <
09
b0 =
1!
#35000
0!
#36000
b1 =
b0 <
b1 J
b1000 I
b1 !"
b0 ~
b1 ."
b1000 -"
1!
#37000
0!
#38000
b1000 -"
b10 ."
b0 ~
b10 !"
b1000 I
b10 J
b0 <
b10 =
1!
#39000
0!
#40000
b11 =
b0 <
b11 J
b1000 I
b11 !"
b0 ~
b11 ."
b1000 -"
1!
#41000
0!
#42000
b1000 -"
b100 ."
b0 ~
b100 !"
b1000 I
b100 J
b0 <
b100 =
1!
#43000
0!
#44000
b101 =
b0 <
b101 J
b1000 I
b101 !"
b0 ~
b101 ."
b1000 -"
1!
#45000
0!
#46000
b1000 -"
b110 ."
b0 ~
b110 !"
b1000 I
b110 J
b0 <
b110 =
1!
#47000
0!
#48000
b111 =
b0 <
b111 J
b1000 I
b111 !"
b0 ~
b111 ."
b1000 -"
1!
#49000
0!
#50000
0n
0+
bx ,"
1k
1+"
b1000 ."
1{
b1000 !"
bx H
1(
1G
b1000 J
19
b1000 =
1!
#51000
0!
#52000
1+
1n
09
b0 =
0(
0G
b0 J
0{
b0 !"
0k
0+"
b0 ."
1!
#53000
0!
#54000
b0xxxxxxx ,"
b1000 -"
xv
b1 ."
b0 ~
b1 !"
b0xxxxxxx H
b1000 I
x3
b1 J
b0 <
b1 =
1!
#55000
0!
#56000
b10 =
b0 <
b10 J
b0xxxxxx H
b1000 I
b10 !"
b0 ~
b10 ."
b0xxxxxx ,"
b1000 -"
1!
#57000
0!
#58000
b0xxxxx ,"
b1000 -"
b11 ."
b0 ~
b11 !"
b0xxxxx H
b1000 I
b11 J
b0 <
b11 =
1!
#59000
0!
#60000
b100 =
b0 <
b100 J
b0xxxx H
b1000 I
b100 !"
b0 ~
b100 ."
b0xxxx ,"
b1000 -"
1!
#61000
0!
#62000
b0xxx ,"
b1000 -"
b101 ."
b0 ~
b101 !"
b0xxx H
b1000 I
b101 J
b0 <
b101 =
1!
#63000
0!
#64000
b110 =
b0 <
b110 J
b0xx H
b1000 I
b110 !"
b0 ~
b110 ."
b0xx ,"
b1000 -"
1!
#65000
0!
#66000
b0x ,"
b1000 -"
b111 ."
b0 ~
b111 !"
b0x H
b1000 I
b111 J
b0 <
b111 =
1!
#67000
0!
#68000
0+
0n
19
b1000 =
b0 <
1(
1G
b1000 J
b0 H
b1000 I
1{
b1000 !"
b0 ~
1k
1+"
b1000 ."
b0 ,"
b1000 -"
1!
#69000
0!
#70000
1n
1+
b1000 -"
0v
0k
0+"
b0 ."
b0 ~
0{
b0 !"
b1000 I
03
0(
0G
b0 J
b0 <
09
b0 =
1!
#71000
0!
#72000
b1 =
b0 <
b1 J
b1000 I
b1 !"
b0 ~
b1 ."
b1000 -"
1!
#73000
0!
#74000
b1000 -"
b10 ."
b0 ~
b10 !"
b1000 I
b10 J
b0 <
b10 =
1!
#75000
0!
#76000
b11 =
b0 <
b11 J
b1000 I
b11 !"
b0 ~
b11 ."
b1000 -"
1!
#77000
0!
#78000
b1000 -"
b100 ."
b0 ~
b100 !"
b1000 I
b100 J
b0 <
b100 =
1!
#79000
0!
#80000
b101 =
b0 <
b101 J
b1000 I
b101 !"
b0 ~
b101 ."
b1000 -"
1!
#81000
0!
#82000
b1000 -"
b110 ."
b0 ~
b110 !"
b1000 I
b110 J
b0 <
b110 =
1!
#83000
0!
#84000
b111 =
b0 <
b111 J
b1000 I
b111 !"
b0 ~
b111 ."
b1000 -"
1!
#85000
0!
#86000
0n
0+
bx ,"
1k
1+"
b1000 ."
1{
b1000 !"
bx H
1(
1G
b1000 J
19
b1000 =
1!
#87000
0!
#88000
1+
1n
09
b0 =
0(
0G
b0 J
0{
b0 !"
0k
0+"
b0 ."
1!
#89000
0!
#90000
b0xxxxxxx ,"
b1000 -"
xv
b1 ."
b0 ~
b1 !"
b0xxxxxxx H
b1000 I
x3
b1 J
b0 <
b1 =
1!
#91000
0!
#92000
b10 =
b0 <
b10 J
b0xxxxxx H
b1000 I
b10 !"
b0 ~
b10 ."
b0xxxxxx ,"
b1000 -"
1!
#93000
0!
#94000
b0xxxxx ,"
b1000 -"
b11 ."
b0 ~
b11 !"
b0xxxxx H
b1000 I
b11 J
b0 <
b11 =
1!
#95000
0!
#96000
b100 =
b0 <
b100 J
b0xxxx H
b1000 I
b100 !"
b0 ~
b100 ."
b0xxxx ,"
b1000 -"
1!
#97000
0!
#98000
b0xxx ,"
b1000 -"
b101 ."
b0 ~
b101 !"
b0xxx H
b1000 I
b101 J
b0 <
b101 =
1!
#99000
0!
#100000
b110 =
b0 <
b110 J
b0xx H
b1000 I
b110 !"
b0 ~
b110 ."
b0xx ,"
b1000 -"
1!
#101000
0!
#102000
b0x ,"
b1000 -"
b111 ."
b0 ~
b111 !"
b0x H
b1000 I
b111 J
b0 <
b111 =
1!
#103000
0!
#104000
0+
0n
19
b1000 =
b0 <
1(
1G
b1000 J
b0 H
b1000 I
1{
b1000 !"
b0 ~
1k
1+"
b1000 ."
b0 ,"
b1000 -"
1!
#105000
0!
#106000
1n
1+
b1000 -"
0v
0k
0+"
b0 ."
b0 ~
0{
b0 !"
b1000 I
03
0(
0G
b0 J
b0 <
09
b0 =
1!
#107000
0!
#108000
b1 =
b0 <
b1 J
b1000 I
b1 !"
b0 ~
b1 ."
b1000 -"
1!
#109000
0!
#110000
b1000 -"
b10 ."
b0 ~
b10 !"
b1000 I
b10 J
b0 <
b10 =
1!
#111000
0!
#112000
b11 =
b0 <
b11 J
b1000 I
b11 !"
b0 ~
b11 ."
b1000 -"
1!
#113000
0!
#114000
b1000 -"
b100 ."
b0 ~
b100 !"
b1000 I
b100 J
b0 <
b100 =
1!
#115000
0!
#116000
b101 =
b0 <
b101 J
b1000 I
b101 !"
b0 ~
b101 ."
b1000 -"
1!
#117000
0!
#118000
b1000 -"
b110 ."
b0 ~
b110 !"
b1000 I
b110 J
b0 <
b110 =
1!
#119000
0!
#120000
b111 =
b0 <
b111 J
b1000 I
b111 !"
b0 ~
b111 ."
b1000 -"
1!
#121000
0!
#122000
0n
0+
bx ,"
1k
1+"
b1000 ."
1{
b1000 !"
bx H
1(
1G
b1000 J
19
b1000 =
1!
#123000
0!
#124000
1+
1n
09
b0 =
0(
0G
b0 J
0{
b0 !"
0k
0+"
b0 ."
1!
#125000
0!
#126000
b0xxxxxxx ,"
b1000 -"
xv
b1 ."
b0 ~
b1 !"
b0xxxxxxx H
b1000 I
x3
b1 J
b0 <
b1 =
1!
#127000
0!
#128000
b10 =
b0 <
b10 J
b0xxxxxx H
b1000 I
b10 !"
b0 ~
b10 ."
b0xxxxxx ,"
b1000 -"
1!
#129000
0!
#130000
b0xxxxx ,"
b1000 -"
b11 ."
b0 ~
b11 !"
b0xxxxx H
b1000 I
b11 J
b0 <
b11 =
1!
#131000
0!
#132000
b100 =
b0 <
b100 J
b0xxxx H
b1000 I
b100 !"
b0 ~
b100 ."
b0xxxx ,"
b1000 -"
1!
#133000
0!
#134000
b0xxx ,"
b1000 -"
b101 ."
b0 ~
b101 !"
b0xxx H
b1000 I
b101 J
b0 <
b101 =
1!
#135000
0!
#136000
b110 =
b0 <
b110 J
b0xx H
b1000 I
b110 !"
b0 ~
b110 ."
b0xx ,"
b1000 -"
1!
#137000
0!
#138000
b0x ,"
b1000 -"
b111 ."
b0 ~
b111 !"
b0x H
b1000 I
b111 J
b0 <
b111 =
1!
#139000
0!
#140000
0+
0n
19
b1000 =
b0 <
1(
1G
b1000 J
b0 H
b1000 I
1{
b1000 !"
b0 ~
1k
1+"
b1000 ."
b0 ,"
b1000 -"
1!
#141000
0!
#142000
1n
1+
b1000 -"
0v
0k
0+"
b0 ."
b0 ~
0{
b0 !"
b1000 I
03
0(
0G
b0 J
b0 <
09
b0 =
1!
#143000
0!
#144000
b1 =
b0 <
b1 J
b1000 I
b1 !"
b0 ~
b1 ."
b1000 -"
1!
#145000
0!
#146000
b1000 -"
b10 ."
b0 ~
b10 !"
b1000 I
b10 J
b0 <
b10 =
1!
#147000
0!
#148000
b11 =
b0 <
b11 J
b1000 I
b11 !"
b0 ~
b11 ."
b1000 -"
1!
#149000
0!
#150000
b1000 -"
b100 ."
b0 ~
b100 !"
b1000 I
b100 J
b0 <
b100 =
1!
#151000
0!
#152000
b101 =
b0 <
b101 J
b1000 I
b101 !"
b0 ~
b101 ."
b1000 -"
1!
#153000
0!
#154000
b1000 -"
b110 ."
b0 ~
b110 !"
b1000 I
b110 J
b0 <
b110 =
1!
#155000
0!
#156000
b111 =
b0 <
b111 J
b1000 I
b111 !"
b0 ~
b111 ."
b1000 -"
1!
#157000
0!
#158000
0n
0+
bx ,"
1k
1+"
b1000 ."
1{
b1000 !"
bx H
1(
1G
b1000 J
19
b1000 =
1!
#159000
0!
#160000
1+
1n
09
b0 =
0(
0G
b0 J
0{
b0 !"
0k
0+"
b0 ."
1!
#161000
0!
#162000
b0xxxxxxx ,"
b1000 -"
xv
b1 ."
b0 ~
b1 !"
b0xxxxxxx H
b1000 I
x3
b1 J
b0 <
b1 =
1!
#163000
0!
#164000
b10 =
b0 <
b10 J
b0xxxxxx H
b1000 I
b10 !"
b0 ~
b10 ."
b0xxxxxx ,"
b1000 -"
1!
#165000
0!
#166000
b0xxxxx ,"
b1000 -"
b11 ."
b0 ~
b11 !"
b0xxxxx H
b1000 I
b11 J
b0 <
b11 =
1!
#167000
0!
#168000
b100 =
b0 <
b100 J
b0xxxx H
b1000 I
b100 !"
b0 ~
b100 ."
b0xxxx ,"
b1000 -"
1!
#169000
0!
#170000
b0xxx ,"
b1000 -"
b101 ."
b0 ~
b101 !"
b0xxx H
b1000 I
b101 J
b0 <
b101 =
1!
#171000
0!
#172000
b110 =
b0 <
b110 J
b0xx H
b1000 I
b110 !"
b0 ~
b110 ."
b0xx ,"
b1000 -"
1!
#173000
0!
#174000
b0x ,"
b1000 -"
b111 ."
b0 ~
b111 !"
b0x H
b1000 I
b111 J
b0 <
b111 =
1!
#175000
0!
#176000
0+
0n
19
b1000 =
b0 <
1(
1G
b1000 J
b0 H
b1000 I
1{
b1000 !"
b0 ~
1k
1+"
b1000 ."
b0 ,"
b1000 -"
1!
#177000
0!
#178000
1n
1+
b1000 -"
0v
0k
0+"
b0 ."
b0 ~
0{
b0 !"
b1000 I
03
0(
0G
b0 J
b0 <
09
b0 =
1!
#179000
0!
#180000
b1 =
b0 <
b1 J
b1000 I
b1 !"
b0 ~
b1 ."
b1000 -"
1!
#181000
0!
#182000
b1000 -"
b10 ."
b0 ~
b10 !"
b1000 I
b10 J
b0 <
b10 =
1!
#183000
0!
#184000
b11 =
b0 <
b11 J
b1000 I
b11 !"
b0 ~
b11 ."
b1000 -"
1!
#185000
0!
#186000
b1000 -"
b100 ."
b0 ~
b100 !"
b1000 I
b100 J
b0 <
b100 =
1!
#187000
0!
#188000
b101 =
b0 <
b101 J
b1000 I
b101 !"
b0 ~
b101 ."
b1000 -"
1!
#189000
0!
#190000
b1000 -"
b110 ."
b0 ~
b110 !"
b1000 I
b110 J
b0 <
b110 =
1!
#191000
0!
#192000
b111 =
b0 <
b111 J
b1000 I
b111 !"
b0 ~
b111 ."
b1000 -"
1!
#193000
0!
#194000
0n
0+
bx ,"
1k
1+"
b1000 ."
1{
b1000 !"
bx H
1(
1G
b1000 J
19
b1000 =
1!
#195000
0!
#196000
1+
1n
09
b0 =
0(
0G
b0 J
0{
b0 !"
0k
0+"
b0 ."
1!
#197000
0!
#198000
b0xxxxxxx ,"
b1000 -"
xv
b1 ."
b0 ~
b1 !"
b0xxxxxxx H
b1000 I
x3
b1 J
b0 <
b1 =
1!
#199000
0!
#200000
b10 =
b0 <
b10 J
b0xxxxxx H
b1000 I
b10 !"
b0 ~
b10 ."
b0xxxxxx ,"
b1000 -"
1!
#201000
0!
#202000
b0xxxxx ,"
b1000 -"
b11 ."
b0 ~
b11 !"
b0xxxxx H
b1000 I
b11 J
b0 <
b11 =
1!
#203000
0!
#204000
b100 =
b0 <
b100 J
b0xxxx H
b1000 I
b100 !"
b0 ~
b100 ."
b0xxxx ,"
b1000 -"
1!
#205000
0!
#206000
b0xxx ,"
b1000 -"
b101 ."
b0 ~
b101 !"
b0xxx H
b1000 I
b101 J
b0 <
b101 =
1!
#207000
0!
#208000
b110 =
b0 <
b110 J
b0xx H
b1000 I
b110 !"
b0 ~
b110 ."
b0xx ,"
b1000 -"
1!
#209000
0!
#210000
b0x ,"
b1000 -"
b111 ."
b0 ~
b111 !"
b0x H
b1000 I
b111 J
b0 <
b111 =
1!
#211000
0!
#212000
0+
0n
19
b1000 =
b0 <
1(
1G
b1000 J
b0 H
b1000 I
1{
b1000 !"
b0 ~
1k
1+"
b1000 ."
b0 ,"
b1000 -"
1!
#213000
0!
#214000
1n
1+
b1000 -"
0v
0k
0+"
b0 ."
b0 ~
0{
b0 !"
b1000 I
03
0(
0G
b0 J
b0 <
09
b0 =
1!
#215000
0!
#216000
b1 =
b0 <
b1 J
b1000 I
b1 !"
b0 ~
b1 ."
b1000 -"
1!
#217000
0!
#218000
b1000 -"
b10 ."
b0 ~
b10 !"
b1000 I
b10 J
b0 <
b10 =
1!
#219000
0!
#220000
b11 =
b0 <
b11 J
b1000 I
b11 !"
b0 ~
b11 ."
b1000 -"
1!
#221000
0!
#222000
b1000 -"
b100 ."
b0 ~
b100 !"
b1000 I
b100 J
b0 <
b100 =
1!
#223000
0!
#224000
b101 =
b0 <
b101 J
b1000 I
b101 !"
b0 ~
b101 ."
b1000 -"
1!
#225000
0!
#226000
b1000 -"
b110 ."
b0 ~
b110 !"
b1000 I
b110 J
b0 <
b110 =
1!
#227000
0!
#228000
b111 =
b0 <
b111 J
b1000 I
b111 !"
b0 ~
b111 ."
b1000 -"
1!
#229000
0!
#230000
0n
0+
bx ,"
1k
1+"
b1000 ."
1{
b1000 !"
bx H
1(
1G
b1000 J
19
b1000 =
1!
#231000
0!
#232000
1+
1n
09
b0 =
0(
0G
b0 J
0{
b0 !"
0k
0+"
b0 ."
1!
#233000
0!
#234000
b0xxxxxxx ,"
b1000 -"
xv
b1 ."
b0 ~
b1 !"
b0xxxxxxx H
b1000 I
x3
b1 J
b0 <
b1 =
1!
#235000
0!
#236000
b10 =
b0 <
b10 J
b0xxxxxx H
b1000 I
b10 !"
b0 ~
b10 ."
b0xxxxxx ,"
b1000 -"
1!
#237000
0!
#238000
b0xxxxx ,"
b1000 -"
b11 ."
b0 ~
b11 !"
b0xxxxx H
b1000 I
b11 J
b0 <
b11 =
1!
#239000
0!
#240000
b100 =
b0 <
b100 J
b0xxxx H
b1000 I
b100 !"
b0 ~
b100 ."
b0xxxx ,"
b1000 -"
1!
#241000
0!
#242000
b0xxx ,"
b1000 -"
b101 ."
b0 ~
b101 !"
b0xxx H
b1000 I
b101 J
b0 <
b101 =
1!
#243000
0!
#244000
b110 =
b0 <
b110 J
b0xx H
b1000 I
b110 !"
b0 ~
b110 ."
b0xx ,"
b1000 -"
1!
#245000
0!
#246000
b0x ,"
b1000 -"
b111 ."
b0 ~
b111 !"
b0x H
b1000 I
b111 J
b0 <
b111 =
1!
#247000
0!
#248000
0+
0n
19
b1000 =
b0 <
1(
1G
b1000 J
b0 H
b1000 I
1{
b1000 !"
b0 ~
1k
1+"
b1000 ."
b0 ,"
b1000 -"
1!
#249000
0!
#250000
1n
1+
b1000 -"
0v
0k
0+"
b0 ."
b0 ~
0{
b0 !"
b1000 I
03
0(
0G
b0 J
b0 <
09
b0 =
1!
#251000
0!
#252000
b1 =
b0 <
b1 J
b1000 I
b1 !"
b0 ~
b1 ."
b1000 -"
1!
#253000
0!
#254000
b1000 -"
b10 ."
b0 ~
b10 !"
b1000 I
b10 J
b0 <
b10 =
1!
#255000
0!
#256000
b11 =
b0 <
b11 J
b1000 I
b11 !"
b0 ~
b11 ."
b1000 -"
1!
#257000
0!
#258000
b1000 -"
b100 ."
b0 ~
b100 !"
b1000 I
b100 J
b0 <
b100 =
1!
#259000
0!
#260000
b101 =
b0 <
b101 J
b1000 I
b101 !"
b0 ~
b101 ."
b1000 -"
1!
#261000
0!
#262000
b1000 -"
b110 ."
b0 ~
b110 !"
b1000 I
b110 J
b0 <
b110 =
1!
#263000
0!
#264000
b111 =
b0 <
b111 J
b1000 I
b111 !"
b0 ~
b111 ."
b1000 -"
1!
#265000
0!
#266000
0n
0+
bx ,"
1k
1+"
b1000 ."
1{
b1000 !"
bx H
1(
1G
b1000 J
19
b1000 =
1!
#267000
0!
#268000
1+
1n
09
b0 =
0(
0G
b0 J
0{
b0 !"
0k
0+"
b0 ."
1!
#269000
0!
#270000
b0xxxxxxx ,"
b1000 -"
xv
b1 ."
b0 ~
b1 !"
b0xxxxxxx H
b1000 I
x3
b1 J
b0 <
b1 =
1!
#271000
0!
#272000
b10 =
b0 <
b10 J
b0xxxxxx H
b1000 I
b10 !"
b0 ~
b10 ."
b0xxxxxx ,"
b1000 -"
1!
#273000
0!
#274000
b0xxxxx ,"
b1000 -"
b11 ."
b0 ~
b11 !"
b0xxxxx H
b1000 I
b11 J
b0 <
b11 =
1!
#275000
0!
#276000
b100 =
b0 <
b100 J
b0xxxx H
b1000 I
b100 !"
b0 ~
b100 ."
b0xxxx ,"
b1000 -"
1!
#277000
0!
#278000
b0xxx ,"
b1000 -"
b101 ."
b0 ~
b101 !"
b0xxx H
b1000 I
b101 J
b0 <
b101 =
1!
#279000
0!
#280000
b110 =
b0 <
b110 J
b0xx H
b1000 I
b110 !"
b0 ~
b110 ."
b0xx ,"
b1000 -"
1!
#281000
0!
#282000
b0x ,"
b1000 -"
b111 ."
b0 ~
b111 !"
b0x H
b1000 I
b111 J
b0 <
b111 =
1!
#283000
0!
